EESchema Schematic File Version 2
LIBS:power
LIBS:device
LIBS:transistors
LIBS:conn
LIBS:linear
LIBS:regul
LIBS:74xx
LIBS:cmos4000
LIBS:adc-dac
LIBS:memory
LIBS:xilinx
LIBS:microcontrollers
LIBS:dsp
LIBS:microchip
LIBS:analog_switches
LIBS:motorola
LIBS:texas
LIBS:intel
LIBS:audio
LIBS:interface
LIBS:digital-audio
LIBS:philips
LIBS:display
LIBS:cypress
LIBS:siliconi
LIBS:opto
LIBS:atmel
LIBS:contrib
LIBS:valves
LIBS:comm
LIBS:project-cache
EELAYER 25 0
EELAYER END
$Descr A4 11693 8268
encoding utf-8
Sheet 1 1
Title ""
Date ""
Rev ""
Comp ""
Comment1 ""
Comment2 ""
Comment3 ""
Comment4 ""
$EndDescr
$Comp
L ARM-JTAG J10
U 1 1 59DC4953
P 6750 3500
F 0 "J10" H 6750 4150 60  0000 C CNN
F 1 "ARM-JTAG" H 6750 2950 60  0000 C CNN
F 2 "Local:ARM-JTAG-20" H 6750 3500 60  0001 C CNN
F 3 "" H 6750 3500 60  0001 C CNN
	1    6750 3500
	1    0    0    -1  
$EndComp
$Comp
L RJ12 J12
U 1 1 59DC4A3B
P 7000 1800
F 0 "J12" H 7200 2300 50  0000 C CNN
F 1 "RJ12" H 6850 2300 50  0000 C CNN
F 2 "Local:RJ12-06P" H 7000 1800 50  0001 C CNN
F 3 "" H 7000 1800 50  0000 C CNN
	1    7000 1800
	0    1    1    0   
$EndComp
Wire Wire Line
	6550 1700 6350 1700
Wire Wire Line
	6150 1800 6550 1800
Wire Wire Line
	6250 1900 6550 1900
Wire Wire Line
	6150 2000 6550 2000
Wire Wire Line
	7300 3100 7400 3100
Wire Wire Line
	7400 3100 7400 4000
Wire Wire Line
	7400 3900 7300 3900
Wire Wire Line
	7300 3200 7400 3200
Connection ~ 7400 3200
Wire Wire Line
	7300 3300 7400 3300
Connection ~ 7400 3300
Wire Wire Line
	7300 3800 7400 3800
Connection ~ 7400 3800
Wire Wire Line
	7300 3700 7400 3700
Connection ~ 7400 3700
Wire Wire Line
	7300 3600 7400 3600
Connection ~ 7400 3600
Wire Wire Line
	7300 3500 7400 3500
Connection ~ 7400 3500
Wire Wire Line
	7300 3400 7400 3400
Connection ~ 7400 3400
Wire Wire Line
	7300 3000 7400 3000
Wire Wire Line
	6200 3000 6100 3000
Wire Wire Line
	6100 3000 6100 2900
Wire Wire Line
	7400 3000 7400 2900
$Comp
L +3V3 #PWR?
U 1 1 59DC4C79
P 6100 2900
F 0 "#PWR?" H 6100 2750 50  0001 C CNN
F 1 "+3V3" H 6100 3040 50  0000 C CNN
F 2 "" H 6100 2900 50  0000 C CNN
F 3 "" H 6100 2900 50  0000 C CNN
	1    6100 2900
	1    0    0    -1  
$EndComp
$Comp
L +3V3 #PWR?
U 1 1 59DC4C91
P 7400 2900
F 0 "#PWR?" H 7400 2750 50  0001 C CNN
F 1 "+3V3" H 7400 3040 50  0000 C CNN
F 2 "" H 7400 2900 50  0000 C CNN
F 3 "" H 7400 2900 50  0000 C CNN
	1    7400 2900
	1    0    0    -1  
$EndComp
$Comp
L GND #PWR?
U 1 1 59DC4CEA
P 7400 4000
F 0 "#PWR?" H 7400 3750 50  0001 C CNN
F 1 "GND" H 7400 3850 50  0000 C CNN
F 2 "" H 7400 4000 50  0000 C CNN
F 3 "" H 7400 4000 50  0000 C CNN
	1    7400 4000
	1    0    0    -1  
$EndComp
Connection ~ 7400 3900
Wire Wire Line
	6200 3300 6100 3300
Wire Wire Line
	6200 3400 6100 3400
Text GLabel 6100 3300 0    47   Input ~ 0
SWDIO
Text GLabel 6100 3400 0    47   Input ~ 0
SWCLK
Wire Wire Line
	6200 3100 6100 3100
Wire Wire Line
	6200 3200 6100 3200
Wire Wire Line
	6200 3500 6100 3500
Wire Wire Line
	6200 3600 6100 3600
Wire Wire Line
	6200 3700 6100 3700
Wire Wire Line
	6200 3800 6100 3800
Wire Wire Line
	6200 3900 6100 3900
NoConn ~ 6100 3100
NoConn ~ 6100 3200
NoConn ~ 6100 3500
NoConn ~ 6100 3600
NoConn ~ 6100 3700
NoConn ~ 6100 3800
NoConn ~ 6100 3900
$Comp
L GND #PWR?
U 1 1 59DC4F64
P 6350 2100
F 0 "#PWR?" H 6350 1850 50  0001 C CNN
F 1 "GND" H 6350 1950 50  0000 C CNN
F 2 "" H 6350 2100 50  0000 C CNN
F 3 "" H 6350 2100 50  0000 C CNN
	1    6350 2100
	1    0    0    -1  
$EndComp
Wire Wire Line
	6350 1700 6350 2100
Wire Wire Line
	6250 1900 6250 1700
$Comp
L +3V3 #PWR?
U 1 1 59DC5051
P 6250 1700
F 0 "#PWR?" H 6250 1550 50  0001 C CNN
F 1 "+3V3" H 6250 1840 50  0000 C CNN
F 2 "" H 6250 1700 50  0000 C CNN
F 3 "" H 6250 1700 50  0000 C CNN
	1    6250 1700
	1    0    0    -1  
$EndComp
Text GLabel 6150 1800 0    47   Input ~ 0
SWCLK
Text GLabel 6150 2000 0    47   Input ~ 0
SWDIO
Wire Wire Line
	7400 2300 7400 2500
Wire Wire Line
	7400 2400 7300 2400
Wire Wire Line
	7300 2400 7300 2300
Connection ~ 7400 2400
$Comp
L GND #PWR?
U 1 1 59DC51DB
P 7400 2500
F 0 "#PWR?" H 7400 2250 50  0001 C CNN
F 1 "GND" H 7400 2350 50  0000 C CNN
F 2 "" H 7400 2500 50  0000 C CNN
F 3 "" H 7400 2500 50  0000 C CNN
	1    7400 2500
	1    0    0    -1  
$EndComp
Wire Wire Line
	6550 1600 6450 1600
Wire Wire Line
	6550 2100 6450 2100
NoConn ~ 6450 2100
NoConn ~ 6450 1600
$Comp
L RJ12 J20
U 1 1 59DC5C5F
P 4250 1800
F 0 "J20" H 4450 2300 50  0000 C CNN
F 1 "RJ22" H 4100 2300 50  0000 C CNN
F 2 "Local:RJ12-06P" H 4250 1800 50  0001 C CNN
F 3 "" H 4250 1800 50  0000 C CNN
	1    4250 1800
	0    1    1    0   
$EndComp
Wire Wire Line
	3800 1700 3600 1700
Wire Wire Line
	3400 1800 3800 1800
Wire Wire Line
	3500 1900 3800 1900
Wire Wire Line
	3400 2000 3800 2000
$Comp
L GND #PWR?
U 1 1 59DC5C69
P 3600 2100
F 0 "#PWR?" H 3600 1850 50  0001 C CNN
F 1 "GND" H 3600 1950 50  0000 C CNN
F 2 "" H 3600 2100 50  0000 C CNN
F 3 "" H 3600 2100 50  0000 C CNN
	1    3600 2100
	1    0    0    -1  
$EndComp
Wire Wire Line
	3600 1700 3600 2100
Wire Wire Line
	3500 1900 3500 1700
$Comp
L +3V3 #PWR?
U 1 1 59DC5C71
P 3500 1700
F 0 "#PWR?" H 3500 1550 50  0001 C CNN
F 1 "+3V3" H 3500 1840 50  0000 C CNN
F 2 "" H 3500 1700 50  0000 C CNN
F 3 "" H 3500 1700 50  0000 C CNN
	1    3500 1700
	1    0    0    -1  
$EndComp
Text GLabel 3400 1800 0    47   Input ~ 0
SWCLK
Text GLabel 3400 2000 0    47   Input ~ 0
SWDIO
Wire Wire Line
	4650 2300 4650 2500
Wire Wire Line
	4650 2400 4550 2400
Wire Wire Line
	4550 2400 4550 2300
Connection ~ 4650 2400
$Comp
L GND #PWR?
U 1 1 59DC5C7D
P 4650 2500
F 0 "#PWR?" H 4650 2250 50  0001 C CNN
F 1 "GND" H 4650 2350 50  0000 C CNN
F 2 "" H 4650 2500 50  0000 C CNN
F 3 "" H 4650 2500 50  0000 C CNN
	1    4650 2500
	1    0    0    -1  
$EndComp
Wire Wire Line
	3800 1600 3700 1600
Wire Wire Line
	3800 2100 3700 2100
NoConn ~ 3700 2100
NoConn ~ 3700 1600
$Comp
L SWD J22
U 1 1 59DC5D7F
P 4300 3350
F 0 "J22" H 4300 3650 60  0000 C CNN
F 1 "SWD" H 4300 3050 60  0000 C CNN
F 2 "Local:Pin_Header_Straight_1x04_Pitch2.00mm" H 4100 3350 60  0001 C CNN
F 3 "" H 4100 3350 60  0000 C CNN
	1    4300 3350
	1    0    0    -1  
$EndComp
Wire Wire Line
	3900 3500 3800 3500
Wire Wire Line
	3800 3500 3800 3600
Wire Wire Line
	3900 3300 3800 3300
Wire Wire Line
	3800 3300 3800 3100
Wire Wire Line
	3900 3200 3700 3200
Wire Wire Line
	3900 3400 3700 3400
Text GLabel 3700 3400 0    47   Input ~ 0
SWCLK
Text GLabel 3700 3200 0    47   Input ~ 0
SWDIO
$Comp
L +3V3 #PWR?
U 1 1 59DC6009
P 3800 3100
F 0 "#PWR?" H 3800 2950 50  0001 C CNN
F 1 "+3V3" H 3800 3240 50  0000 C CNN
F 2 "" H 3800 3100 50  0000 C CNN
F 3 "" H 3800 3100 50  0000 C CNN
	1    3800 3100
	1    0    0    -1  
$EndComp
$Comp
L GND #PWR?
U 1 1 59DC6020
P 3800 3600
F 0 "#PWR?" H 3800 3350 50  0001 C CNN
F 1 "GND" H 3800 3450 50  0000 C CNN
F 2 "" H 3800 3600 50  0000 C CNN
F 3 "" H 3800 3600 50  0000 C CNN
	1    3800 3600
	1    0    0    -1  
$EndComp
$EndSCHEMATC
