EESchema Schematic File Version 2
LIBS:power
LIBS:device
LIBS:transistors
LIBS:conn
LIBS:linear
LIBS:regul
LIBS:74xx
LIBS:cmos4000
LIBS:adc-dac
LIBS:memory
LIBS:xilinx
LIBS:special
LIBS:microcontrollers
LIBS:dsp
LIBS:microchip
LIBS:analog_switches
LIBS:motorola
LIBS:texas
LIBS:intel
LIBS:audio
LIBS:interface
LIBS:digital-audio
LIBS:philips
LIBS:display
LIBS:cypress
LIBS:siliconi
LIBS:opto
LIBS:atmel
LIBS:contrib
LIBS:valves
LIBS:comm
EELAYER 25 0
EELAYER END
$Descr A4 11693 8268
encoding utf-8
Sheet 1 1
Title ""
Date ""
Rev ""
Comp ""
Comment1 ""
Comment2 ""
Comment3 ""
Comment4 ""
$EndDescr
$Comp
L ARM-JTAG J1
U 1 1 559E048D
P 6050 3800
F 0 "J1" H 6050 4450 60  0000 C CNN
F 1 "ARM-JTAG" H 6050 3250 60  0000 C CNN
F 2 "" H 6050 3800 60  0000 C CNN
F 3 "" H 6050 3800 60  0000 C CNN
	1    6050 3800
	1    0    0    -1  
$EndComp
$Comp
L GND #PWR11
U 1 1 559E0572
P 6700 4300
F 0 "#PWR11" H 6700 4050 60  0001 C CNN
F 1 "GND" H 6700 4150 60  0000 C CNN
F 2 "" H 6700 4300 60  0000 C CNN
F 3 "" H 6700 4300 60  0000 C CNN
	1    6700 4300
	1    0    0    -1  
$EndComp
Wire Wire Line
	6700 4200 6600 4200
Wire Wire Line
	6700 3400 6700 3500
Wire Wire Line
	6700 3500 6700 3600
Wire Wire Line
	6700 3600 6700 3700
Wire Wire Line
	6700 3700 6700 3800
Wire Wire Line
	6700 3800 6700 3900
Wire Wire Line
	6700 3900 6700 4000
Wire Wire Line
	6700 4000 6700 4100
Wire Wire Line
	6700 4100 6700 4200
Wire Wire Line
	6700 4200 6700 4300
Wire Wire Line
	6600 3400 6700 3400
Connection ~ 6700 4200
Wire Wire Line
	6600 3500 6700 3500
Connection ~ 6700 3500
Wire Wire Line
	6600 3600 6700 3600
Connection ~ 6700 3600
Wire Wire Line
	6600 3700 6700 3700
Connection ~ 6700 3700
Wire Wire Line
	6600 3800 6700 3800
Connection ~ 6700 3800
Wire Wire Line
	6600 3900 6700 3900
Connection ~ 6700 3900
Wire Wire Line
	6600 4000 6700 4000
Connection ~ 6700 4000
Wire Wire Line
	6600 4100 6700 4100
Connection ~ 6700 4100
Wire Wire Line
	6700 3300 6600 3300
$Comp
L +3V3 #PWR10
U 1 1 559E0632
P 6700 3200
F 0 "#PWR10" H 6700 3050 60  0001 C CNN
F 1 "+3V3" H 6700 3340 60  0000 C CNN
F 2 "" H 6700 3200 60  0000 C CNN
F 3 "" H 6700 3200 60  0000 C CNN
	1    6700 3200
	1    0    0    -1  
$EndComp
$Comp
L +3V3 #PWR9
U 1 1 559E07C6
P 5400 3200
F 0 "#PWR9" H 5400 3050 60  0001 C CNN
F 1 "+3V3" H 5400 3340 60  0000 C CNN
F 2 "" H 5400 3200 60  0000 C CNN
F 3 "" H 5400 3200 60  0000 C CNN
	1    5400 3200
	1    0    0    -1  
$EndComp
Wire Wire Line
	5500 3300 5400 3300
Wire Wire Line
	5400 3300 5400 3200
Wire Wire Line
	6700 3300 6700 3200
Wire Wire Line
	5500 3600 5400 3600
Wire Wire Line
	5500 3700 5400 3700
Text Label 5400 3600 2    60   ~ 0
SWDIO
Text Label 5400 3700 2    60   ~ 0
SWCLK
$Comp
L CONN_01X04 P3
U 1 1 559E0FD7
P 4300 3450
F 0 "P3" H 4300 3700 50  0000 C CNN
F 1 "SWD3" V 4400 3450 50  0000 C CNN
F 2 "" H 4300 3450 60  0000 C CNN
F 3 "" H 4300 3450 60  0000 C CNN
	1    4300 3450
	-1   0    0    1   
$EndComp
$Comp
L GND #PWR5
U 1 1 559E0FDD
P 4600 3700
F 0 "#PWR5" H 4600 3450 60  0001 C CNN
F 1 "GND" H 4600 3550 60  0000 C CNN
F 2 "" H 4600 3700 60  0000 C CNN
F 3 "" H 4600 3700 60  0000 C CNN
	1    4600 3700
	1    0    0    -1  
$EndComp
Wire Wire Line
	4500 3600 4600 3600
Wire Wire Line
	4600 3600 4600 3700
Wire Wire Line
	4500 3400 5000 3400
Wire Wire Line
	5000 3400 5000 3300
$Comp
L +3V3 #PWR7
U 1 1 559E0FE7
P 5000 3300
F 0 "#PWR7" H 5000 3150 60  0001 C CNN
F 1 "+3V3" H 5000 3440 60  0000 C CNN
F 2 "" H 5000 3300 60  0000 C CNN
F 3 "" H 5000 3300 60  0000 C CNN
	1    5000 3300
	1    0    0    -1  
$EndComp
Wire Wire Line
	4500 3300 4600 3300
Wire Wire Line
	4500 3500 4600 3500
Text Label 4600 3300 0    60   ~ 0
SWDIO
Text Label 4600 3500 0    60   ~ 0
SWCLK
$Comp
L CONN_01X04 P4
U 1 1 559E0FF1
P 4300 4450
F 0 "P4" H 4300 4700 50  0000 C CNN
F 1 "SWD4" V 4400 4450 50  0000 C CNN
F 2 "" H 4300 4450 60  0000 C CNN
F 3 "" H 4300 4450 60  0000 C CNN
	1    4300 4450
	-1   0    0    1   
$EndComp
$Comp
L GND #PWR6
U 1 1 559E0FF7
P 4600 4700
F 0 "#PWR6" H 4600 4450 60  0001 C CNN
F 1 "GND" H 4600 4550 60  0000 C CNN
F 2 "" H 4600 4700 60  0000 C CNN
F 3 "" H 4600 4700 60  0000 C CNN
	1    4600 4700
	1    0    0    -1  
$EndComp
Wire Wire Line
	4500 4600 4600 4600
Wire Wire Line
	4600 4600 4600 4700
Wire Wire Line
	4500 4400 5000 4400
Wire Wire Line
	5000 4400 5000 4300
$Comp
L +3V3 #PWR8
U 1 1 559E1001
P 5000 4300
F 0 "#PWR8" H 5000 4150 60  0001 C CNN
F 1 "+3V3" H 5000 4440 60  0000 C CNN
F 2 "" H 5000 4300 60  0000 C CNN
F 3 "" H 5000 4300 60  0000 C CNN
	1    5000 4300
	1    0    0    -1  
$EndComp
Wire Wire Line
	4500 4300 4600 4300
Wire Wire Line
	4500 4500 4600 4500
Text Label 4600 4500 0    60   ~ 0
SWDIO
Text Label 4600 4300 0    60   ~ 0
SWCLK
Wire Wire Line
	5500 3900 5400 3900
Text Label 5400 3900 2    60   ~ 0
SWO
$Comp
L CONN_01X04 P5
U 1 1 559E1AD9
P 7200 3550
F 0 "P5" H 7200 3800 50  0000 C CNN
F 1 "SWD5" V 7300 3550 50  0000 C CNN
F 2 "" H 7200 3550 60  0000 C CNN
F 3 "" H 7200 3550 60  0000 C CNN
	1    7200 3550
	-1   0    0    1   
$EndComp
$Comp
L GND #PWR13
U 1 1 559E1ADF
P 7900 3700
F 0 "#PWR13" H 7900 3450 60  0001 C CNN
F 1 "GND" H 7900 3550 60  0000 C CNN
F 2 "" H 7900 3700 60  0000 C CNN
F 3 "" H 7900 3700 60  0000 C CNN
	1    7900 3700
	1    0    0    -1  
$EndComp
Wire Wire Line
	7400 3600 7900 3600
Wire Wire Line
	7900 3600 7900 3700
Wire Wire Line
	7400 3400 7900 3400
Wire Wire Line
	7900 3400 7900 3300
$Comp
L +3V3 #PWR12
U 1 1 559E1AE9
P 7900 3300
F 0 "#PWR12" H 7900 3150 60  0001 C CNN
F 1 "+3V3" H 7900 3440 60  0000 C CNN
F 2 "" H 7900 3300 60  0000 C CNN
F 3 "" H 7900 3300 60  0000 C CNN
	1    7900 3300
	1    0    0    -1  
$EndComp
Wire Wire Line
	7400 3700 7500 3700
Wire Wire Line
	7400 3500 7500 3500
Text Label 7500 3700 0    60   ~ 0
SWDIO
Text Label 7500 3500 0    60   ~ 0
SWCLK
$Comp
L CONN_01X04 P6
U 1 1 559E1AF3
P 7200 4550
F 0 "P6" H 7200 4800 50  0000 C CNN
F 1 "SWD6" V 7300 4550 50  0000 C CNN
F 2 "" H 7200 4550 60  0000 C CNN
F 3 "" H 7200 4550 60  0000 C CNN
	1    7200 4550
	-1   0    0    1   
$EndComp
$Comp
L GND #PWR15
U 1 1 559E1AF9
P 7900 4700
F 0 "#PWR15" H 7900 4450 60  0001 C CNN
F 1 "GND" H 7900 4550 60  0000 C CNN
F 2 "" H 7900 4700 60  0000 C CNN
F 3 "" H 7900 4700 60  0000 C CNN
	1    7900 4700
	1    0    0    -1  
$EndComp
Wire Wire Line
	7400 4600 7900 4600
Wire Wire Line
	7900 4600 7900 4700
Wire Wire Line
	7400 4400 7900 4400
Wire Wire Line
	7900 4400 7900 4300
$Comp
L +3V3 #PWR14
U 1 1 559E1B03
P 7900 4300
F 0 "#PWR14" H 7900 4150 60  0001 C CNN
F 1 "+3V3" H 7900 4440 60  0000 C CNN
F 2 "" H 7900 4300 60  0000 C CNN
F 3 "" H 7900 4300 60  0000 C CNN
	1    7900 4300
	1    0    0    -1  
$EndComp
Wire Wire Line
	7400 4700 7500 4700
Wire Wire Line
	7400 4500 7500 4500
Text Label 7500 4500 0    60   ~ 0
SWDIO
Text Label 7500 4700 0    60   ~ 0
SWCLK
Text Label 3600 4400 0    60   ~ 0
SWCLK
Text Label 3600 4500 0    60   ~ 0
SWDIO
Wire Wire Line
	3500 4500 3600 4500
Wire Wire Line
	3500 4400 3600 4400
$Comp
L +3V3 #PWR3
U 1 1 559E0C24
P 3600 4200
F 0 "#PWR3" H 3600 4050 60  0001 C CNN
F 1 "+3V3" H 3600 4340 60  0000 C CNN
F 2 "" H 3600 4200 60  0000 C CNN
F 3 "" H 3600 4200 60  0000 C CNN
	1    3600 4200
	1    0    0    -1  
$EndComp
Wire Wire Line
	3600 4300 3600 4200
Wire Wire Line
	3500 4300 3600 4300
Wire Wire Line
	3600 4600 3600 4700
Wire Wire Line
	3500 4600 3600 4600
$Comp
L GND #PWR4
U 1 1 559E0C1A
P 3600 4700
F 0 "#PWR4" H 3600 4450 60  0001 C CNN
F 1 "GND" H 3600 4550 60  0000 C CNN
F 2 "" H 3600 4700 60  0000 C CNN
F 3 "" H 3600 4700 60  0000 C CNN
	1    3600 4700
	1    0    0    -1  
$EndComp
$Comp
L CONN_01X04 P2
U 1 1 559E0C14
P 3300 4450
F 0 "P2" H 3300 4700 50  0000 C CNN
F 1 "SWD2" V 3400 4450 50  0000 C CNN
F 2 "" H 3300 4450 60  0000 C CNN
F 3 "" H 3300 4450 60  0000 C CNN
	1    3300 4450
	-1   0    0    1   
$EndComp
Text Label 3600 3500 0    60   ~ 0
SWCLK
Text Label 3600 3400 0    60   ~ 0
SWDIO
Wire Wire Line
	3500 3500 3600 3500
Wire Wire Line
	3500 3400 3600 3400
$Comp
L +3V3 #PWR1
U 1 1 559E07FA
P 3600 3200
F 0 "#PWR1" H 3600 3050 60  0001 C CNN
F 1 "+3V3" H 3600 3340 60  0000 C CNN
F 2 "" H 3600 3200 60  0000 C CNN
F 3 "" H 3600 3200 60  0000 C CNN
	1    3600 3200
	1    0    0    -1  
$EndComp
Wire Wire Line
	3600 3300 3600 3200
Wire Wire Line
	3500 3300 3600 3300
Wire Wire Line
	3600 3600 3600 3700
Wire Wire Line
	3500 3600 3600 3600
$Comp
L GND #PWR2
U 1 1 559E0764
P 3600 3700
F 0 "#PWR2" H 3600 3450 60  0001 C CNN
F 1 "GND" H 3600 3550 60  0000 C CNN
F 2 "" H 3600 3700 60  0000 C CNN
F 3 "" H 3600 3700 60  0000 C CNN
	1    3600 3700
	1    0    0    -1  
$EndComp
$Comp
L CONN_01X04 P1
U 1 1 559E051A
P 3300 3450
F 0 "P1" H 3300 3700 50  0000 C CNN
F 1 "SWD1" V 3400 3450 50  0000 C CNN
F 2 "" H 3300 3450 60  0000 C CNN
F 3 "" H 3300 3450 60  0000 C CNN
	1    3300 3450
	-1   0    0    1   
$EndComp
Text Label 8800 4350 0    60   ~ 0
SWCLK
Text Label 8800 4650 0    60   ~ 0
SWDIO
Wire Wire Line
	8700 4650 8800 4650
Wire Wire Line
	8700 4350 8800 4350
$Comp
L +3V3 #PWR18
U 1 1 559E2419
P 9200 4350
F 0 "#PWR18" H 9200 4200 60  0001 C CNN
F 1 "+3V3" H 9200 4490 60  0000 C CNN
F 2 "" H 9200 4350 60  0000 C CNN
F 3 "" H 9200 4350 60  0000 C CNN
	1    9200 4350
	1    0    0    -1  
$EndComp
Wire Wire Line
	9200 4450 9200 4350
Wire Wire Line
	8700 4450 9200 4450
Wire Wire Line
	9200 4550 9200 4650
Wire Wire Line
	8700 4550 9200 4550
$Comp
L GND #PWR19
U 1 1 559E2423
P 9200 4650
F 0 "#PWR19" H 9200 4400 60  0001 C CNN
F 1 "GND" H 9200 4500 60  0000 C CNN
F 2 "" H 9200 4650 60  0000 C CNN
F 3 "" H 9200 4650 60  0000 C CNN
	1    9200 4650
	1    0    0    -1  
$EndComp
$Comp
L CONN_01X04 P8
U 1 1 559E2429
P 8500 4500
F 0 "P8" H 8500 4750 50  0000 C CNN
F 1 "SWD8" V 8600 4500 50  0000 C CNN
F 2 "" H 8500 4500 60  0000 C CNN
F 3 "" H 8500 4500 60  0000 C CNN
	1    8500 4500
	-1   0    0    1   
$EndComp
Text Label 8800 3650 0    60   ~ 0
SWCLK
Text Label 8800 3350 0    60   ~ 0
SWDIO
Wire Wire Line
	8700 3650 8800 3650
Wire Wire Line
	8700 3350 8800 3350
$Comp
L +3V3 #PWR16
U 1 1 559E2433
P 9200 3350
F 0 "#PWR16" H 9200 3200 60  0001 C CNN
F 1 "+3V3" H 9200 3490 60  0000 C CNN
F 2 "" H 9200 3350 60  0000 C CNN
F 3 "" H 9200 3350 60  0000 C CNN
	1    9200 3350
	1    0    0    -1  
$EndComp
Wire Wire Line
	9200 3450 9200 3350
Wire Wire Line
	8700 3450 9200 3450
Wire Wire Line
	9200 3550 9200 3650
Wire Wire Line
	8700 3550 9200 3550
$Comp
L GND #PWR17
U 1 1 559E243D
P 9200 3650
F 0 "#PWR17" H 9200 3400 60  0001 C CNN
F 1 "GND" H 9200 3500 60  0000 C CNN
F 2 "" H 9200 3650 60  0000 C CNN
F 3 "" H 9200 3650 60  0000 C CNN
	1    9200 3650
	1    0    0    -1  
$EndComp
$Comp
L CONN_01X04 P7
U 1 1 559E2443
P 8500 3500
F 0 "P7" H 8500 3750 50  0000 C CNN
F 1 "SWD7" V 8600 3500 50  0000 C CNN
F 2 "" H 8500 3500 60  0000 C CNN
F 3 "" H 8500 3500 60  0000 C CNN
	1    8500 3500
	-1   0    0    1   
$EndComp
$EndSCHEMATC
